Notebook zur Data Mining-Konsultation
…
d  <- stringdistmatrix(king_titel, method = "jw")
hc <- hclust(as.dist(d), method = "average")
gruppen <- cutree(hc, h = 0.15)

tibble(titel = king_titel, gruppe = gruppen) %>%
  group_by(gruppe) %>%
  filter(n() > 1) %>%
  arrange(gruppe) %>%
  print(n = 30)

# A tibble: 77 × 2
# Groups:   gruppe [35]
   titel                                       gruppe
   <chr>                                        <int>
 1 the girl who loved tom gordon                    1
 2 the girl who loved tom gordon : a novel          1
 3 different seasons                                7
 4 different seasons m/tv                           7
 5 different seasons (signet)                       7
 6 the green mile                                   9
 7 der green mile                                   9
 8 hearts in atlantis                              11
 9 hearts in atlantis (mti)                        11
10 eyes of the dragon                              12
11 eyes of the dragon: a story                     12
12 dolores claiborne                               13
13 dolores claiborne-23.50                         13
14 atlantis.                                       15
15 atlantis                                        15
16 the stand (the complete and uncut edition)      16
17 the stand: the complete &amp; uncut edition     16
18 desperation                                     22
19 desperation.                                    22
20 the green mile: the complete serial novel       23
21 the green mile : the complete serial novel      23
22 the green mile: the complete six part novel     23
23 bag of bones                                    24
24 bag of bones cassette                           24
25 firestarter                                     27
26 firestarter (r)                                 27
27 cujo                                            29
28 cujo.                                           29
29 the tommyknockers                               30
30 tommyknockers                                   30
# ℹ 47 more rows
…
